[gd_scene load_steps=2 format=2]

[ext_resource path="res://Utils/Audio/MusicPlayer.cs" type="Script" id=1]

[node name="MusicPlayer" type="AudioStreamPlayer"]
script = ExtResource( 1 )
[connection signal="finished" from="." to="." method="OnMusicPlayerFinished"]
