[gd_scene load_steps=5 format=2]

[ext_resource path="res://Props/PushableObstacle/Art/blue gumball v0.1.png" type="Texture" id=1]
[ext_resource path="res://Props/PushableObstacle/PushableObstacle.cs" type="Script" id=2]

[sub_resource type="RectangleShape2D" id=1]
extents = Vector2( 34.4586, 35.5552 )

[sub_resource type="RectangleShape2D" id=2]
extents = Vector2( 36.046, 37.5574 )

[node name="PushableObstacle" type="RigidBody2D"]
collision_layer = 2
gravity_scale = 0.0
linear_damp = 25.0
angular_damp = 1e+07
script = ExtResource( 2 )

[node name="Sprite" type="Sprite" parent="."]
scale = Vector2( 0.5, 0.5 )
texture = ExtResource( 1 )

[node name="Shape" type="CollisionShape2D" parent="."]
position = Vector2( 0, -0.33371 )
shape = SubResource( 1 )

[node name="Label" type="Label" parent="."]
visible = false
margin_left = -40.0
margin_top = -18.0
margin_right = 43.0
margin_bottom = 13.0
text = "Pushable obstacle"
align = 1
autowrap = true
__meta__ = {
"_edit_use_anchors_": false
}

[node name="SoundPlayer" type="AudioStreamPlayer2D" parent="."]

[node name="CreatureArea" type="Area2D" parent="."]
collision_layer = 0
collision_mask = 4

[node name="CollisionShape2D" type="CollisionShape2D" parent="CreatureArea"]
shape = SubResource( 2 )

[connection signal="body_entered" from="." to="." method="OnPushableObstacleBodyEntered"]
[connection signal="body_entered" from="CreatureArea" to="." method="OnCreatureAreaBodyEntered"]
