[gd_scene load_steps=12 format=2]

[ext_resource path="res://Actors/Player/Player.tscn" type="PackedScene" id=1]
[ext_resource path="res://GWJ 33 V10.tres" type="TileSet" id=2]
[ext_resource path="res://Props/Portal/PortalManager.tscn" type="PackedScene" id=3]
[ext_resource path="res://Levels/Level.cs" type="Script" id=4]
[ext_resource path="res://Stages/World/CreatureGeneratorManager.cs" type="Script" id=5]
[ext_resource path="res://Props/PushableObstacle/PushableObstacle.tscn" type="PackedScene" id=6]
[ext_resource path="res://Props/Cauldron/Cauldron.tscn" type="PackedScene" id=7]
[ext_resource path="res://Doodads/StaticTestObstacle/StaticTestObstacle.tscn" type="PackedScene" id=8]
[ext_resource path="res://Props/CreatureGenerator/CreatureGenerator.tscn" type="PackedScene" id=9]
[ext_resource path="res://Stages/World/PortalGen.cs" type="Script" id=10]
[ext_resource path="res://Props/Portal/Portal.tscn" type="PackedScene" id=11]

[node name="Level" type="Node2D"]
script = ExtResource( 4 )
TargetEvil = 1
LevelName = "last level"
NextLevel = 5
EndLevelText = "game fin"
EndLevelPicturePath = "res://icon.png"

[node name="TileMap" type="TileMap" parent="."]
tile_set = ExtResource( 2 )
format = 1
tile_data = PoolIntArray( -393210, 0, 196614, -393209, 0, 196619, -393203, 0, 0, -327676, 0, 196614, -327675, 0, 196618, -327674, 0, 131083, -327673, 0, 262152, -327668, 0, 196617, -327667, 0, 196619, -262141, 0, 196617, -262140, 0, 131083, -262139, 0, 262151, -262138, 0, 262151, -262137, 0, 131082, -262136, 0, 196618, -262135, 0, 196618, -262134, 0, 196610, -262132, 0, 262150, -262131, 0, 262155, -196606, 0, 0, -196605, 0, 327683, -196604, 0, 327690, -196603, 0, 65547, -196602, 0, 262151, -196601, 0, 262151, -196600, 0, 262151, -196599, 0, 262151, -196598, 0, 131082, -196597, 0, 196618, -196596, 0, 131083, -196595, 0, 262155, -131067, 0, 327686, -131066, 0, 65547, -131065, 0, 262151, -131064, 0, 262151, -131063, 0, 262151, -131062, 0, 262151, -131061, 0, 262151, -131060, 0, 65546, -131059, 0, 327688, -65530, 0, 327686, -65529, 0, 327690, -65528, 0, 327687, -65527, 0, 65547, -65526, 0, 262148, -65525, 0, 131080, -65524, 0, 262152, -65507, 0, 196617, -65506, 0, 196618, -65505, 0, 196618, -65504, 0, 196619, 0, 0, 196614, 1, 0, 196615, 2, 0, 196619, 4, 0, 0, 5, 0, 196617, 6, 0, 196616, 9, 0, 327689, 10, 0, 65547, 11, 0, 262151, 12, 0, 131082, 13, 0, 196618, 14, 0, 196618, 15, 0, 196615, 16, 0, 196618, 17, 0, 196618, 18, 0, 196615, 19, 0, 196615, 20, 0, 196618, 21, 0, 196615, 22, 0, 196615, 23, 0, 196618, 24, 0, 196618, 25, 0, 196618, 26, 0, 196618, 27, 0, 196618, 28, 0, 196618, 29, 0, 131083, 30, 0, 262151, 31, 0, 262151, 32, 0, 262155, 65536, 0, 262153, 65537, 0, 262145, 65538, 0, 131082, 65539, 0, 196616, 65541, 0, 262153, 65542, 0, 131082, 65543, 0, 196616, 65546, 0, 262153, 65547, 0, 262151, 65548, 0, 262151, 65549, 0, 262151, 65550, 0, 262151, 65551, 0, 262151, 65552, 0, 262151, 65553, 0, 262151, 65554, 0, 262151, 65555, 0, 262151, 65556, 0, 262151, 65557, 0, 262151, 65558, 0, 262151, 65559, 0, 262151, 65560, 0, 262151, 65561, 0, 262151, 65562, 0, 262151, 65563, 0, 262154, 65564, 0, 262145, 65565, 0, 131079, 65566, 0, 262151, 65567, 0, 262151, 65568, 0, 262152, 131072, 0, 327689, 131073, 0, 65547, 131074, 0, 262151, 131075, 0, 262155, 131077, 0, 262153, 131078, 0, 262151, 131079, 0, 131082, 131080, 0, 196618, 131081, 0, 196618, 131082, 0, 131083, 131083, 0, 262151, 131084, 0, 262151, 131085, 0, 65544, 131086, 0, 65543, 131087, 0, 262151, 131088, 0, 262151, 131089, 0, 262151, 131090, 0, 262151, 131091, 0, 262148, 131092, 0, 262151, 131093, 0, 262151, 131094, 0, 262151, 131095, 0, 262151, 131096, 0, 262151, 131097, 0, 262151, 131098, 0, 262154, 131099, 0, 131080, 131100, 0, 262154, 131101, 0, 262151, 131102, 0, 65546, 131103, 0, 327690, 131104, 0, 327691, 196609, 0, 262153, 196610, 0, 262151, 196611, 0, 131082, 196612, 0, 196618, 196613, 0, 131083, 196614, 0, 131080, 196615, 0, 262151, 196616, 0, 262151, 196617, 0, 262151, 196618, 0, 262151, 196619, 0, 65543, 196620, 0, 262151, 196621, 0, 262148, 196622, 0, 262154, 196623, 0, 262154, 196624, 0, 262151, 196625, 0, 262151, 196626, 0, 262151, 196627, 0, 262154, 196628, 0, 262145, 196629, 0, 262151, 196630, 0, 262151, 196631, 0, 262151, 196632, 0, 262151, 196633, 0, 131079, 196634, 0, 262151, 196635, 0, 262151, 196636, 0, 131079, 196637, 0, 262151, 196638, 0, 262152, 262144, 0, 196614, 262145, 0, 131083, 262146, 0, 262151, 262147, 0, 262151, 262148, 0, 262151, 262149, 0, 262151, 262150, 0, 262151, 262151, 0, 262151, 262152, 0, 262151, 262153, 0, 262151, 262154, 0, 262151, 262155, 0, 262151, 262156, 0, 65543, 262157, 0, 262151, 262158, 0, 262151, 262159, 0, 262151, 262160, 0, 262148, 262161, 0, 262145, 262162, 0, 262151, 262163, 0, 262151, 262164, 0, 262151, 262165, 0, 131080, 262166, 0, 262151, 262167, 0, 262151, 262168, 0, 262151, 262169, 0, 262151, 262170, 0, 262151, 262171, 0, 262151, 262172, 0, 262151, 262173, 0, 262145, 262174, 0, 131082, 262175, 0, 196618, 262176, 0, 196615, 262177, 0, 196616, 327680, 0, 262153, 327681, 0, 262151, 327682, 0, 131080, 327683, 0, 262151, 327684, 0, 262151, 327685, 0, 262151, 327686, 0, 262151, 327687, 0, 262154, 327688, 0, 262151, 327689, 0, 262151, 327690, 0, 262151, 327691, 0, 262151, 327692, 0, 262151, 327693, 0, 65544, 327694, 0, 262151, 327695, 0, 262151, 327696, 0, 262151, 327697, 0, 262151, 327698, 0, 131079, 327699, 0, 262151, 327700, 0, 262151, 327701, 0, 262151, 327702, 0, 262151, 327703, 0, 131079, 327704, 0, 262151, 327705, 0, 262151, 327706, 0, 131080, 327707, 0, 262151, 327708, 0, 262154, 327709, 0, 262145, 327710, 0, 262151, 327711, 0, 262151, 327712, 0, 262151, 327713, 0, 131082, 327714, 0, 196616, 327716, 0, 0, 393216, 0, 327686, 393217, 0, 65547, 393218, 0, 262151, 393219, 0, 262151, 393220, 0, 262151, 393221, 0, 262151, 393222, 0, 262151, 393223, 0, 262151, 393224, 0, 262151, 393225, 0, 262151, 393226, 0, 262151, 393227, 0, 262151, 393228, 0, 262151, 393229, 0, 262145, 393230, 0, 262145, 393231, 0, 65543, 393232, 0, 262151, 393233, 0, 262151, 393234, 0, 262151, 393235, 0, 65543, 393236, 0, 262151, 393237, 0, 262151, 393238, 0, 262151, 393239, 0, 262151, 393240, 0, 262151, 393241, 0, 262151, 393242, 0, 262151, 393243, 0, 262151, 393244, 0, 262151, 393245, 0, 262151, 393246, 0, 262151, 393247, 0, 65546, 393248, 0, 327687, 393249, 0, 65547, 393250, 0, 262146, 458753, 0, 327689, 458754, 0, 65547, 458755, 0, 131080, 458756, 0, 262151, 458757, 0, 65544, 458758, 0, 262151, 458759, 0, 262151, 458760, 0, 262151, 458761, 0, 262151, 458762, 0, 262151, 458763, 0, 262151, 458764, 0, 262151, 458765, 0, 262151, 458766, 0, 262151, 458767, 0, 262145, 458768, 0, 262154, 458769, 0, 65546, 458770, 0, 327687, 458771, 0, 65547, 458772, 0, 262151, 458773, 0, 262151, 458774, 0, 262145, 458775, 0, 262151, 458776, 0, 131079, 458777, 0, 262151, 458778, 0, 262151, 458779, 0, 262151, 458780, 0, 262151, 458781, 0, 262151, 458782, 0, 262151, 458783, 0, 262155, 458785, 0, 262153, 458786, 0, 262152, 524290, 0, 327686, 524291, 0, 65547, 524292, 0, 262151, 524293, 0, 262151, 524294, 0, 262154, 524295, 0, 262151, 524296, 0, 262151, 524297, 0, 262151, 524298, 0, 262151, 524299, 0, 262151, 524300, 0, 262145, 524301, 0, 262151, 524302, 0, 262151, 524303, 0, 262151, 524304, 0, 262151, 524305, 0, 262155, 524307, 0, 262153, 524308, 0, 262151, 524309, 0, 262145, 524310, 0, 262151, 524311, 0, 262151, 524312, 0, 262151, 524313, 0, 262148, 524314, 0, 262151, 524315, 0, 262151, 524316, 0, 262151, 524317, 0, 262151, 524318, 0, 262151, 524319, 0, 262152, 524321, 0, 262150, 524322, 0, 262155, 589827, 0, 262153, 589828, 0, 262151, 589829, 0, 262148, 589830, 0, 262151, 589831, 0, 262151, 589832, 0, 262151, 589833, 0, 262151, 589834, 0, 262151, 589835, 0, 262151, 589836, 0, 262151, 589837, 0, 262151, 589838, 0, 262151, 589839, 0, 262154, 589840, 0, 262151, 589841, 0, 131082, 589842, 0, 196618, 589843, 0, 131083, 589844, 0, 262151, 589845, 0, 262151, 589846, 0, 262145, 589847, 0, 262151, 589848, 0, 262151, 589849, 0, 262151, 589850, 0, 262151, 589851, 0, 131079, 589852, 0, 65543, 589853, 0, 262154, 589854, 0, 262151, 589855, 0, 131082, 589856, 0, 196615, 589857, 0, 131083, 589858, 0, 262155, 655363, 0, 262150, 655364, 0, 262151, 655365, 0, 131079, 655366, 0, 262151, 655367, 0, 131079, 655368, 0, 262151, 655369, 0, 262151, 655370, 0, 262151, 655371, 0, 262151, 655372, 0, 262151, 655373, 0, 262154, 655374, 0, 262151, 655375, 0, 262148, 655376, 0, 262151, 655377, 0, 262151, 655378, 0, 262151, 655379, 0, 262151, 655380, 0, 262151, 655381, 0, 262151, 655382, 0, 262151, 655383, 0, 262151, 655384, 0, 262151, 655385, 0, 262151, 655386, 0, 262151, 655387, 0, 262154, 655388, 0, 65544, 655389, 0, 262151, 655390, 0, 262151, 655391, 0, 65546, 655392, 0, 327684, 655393, 0, 327690, 655394, 0, 327688, 720899, 0, 262150, 720900, 0, 262151, 720901, 0, 262151, 720902, 0, 262151, 720903, 0, 262151, 720904, 0, 262151, 720905, 0, 131079, 720906, 0, 262151, 720907, 0, 65543, 720908, 0, 262151, 720909, 0, 262151, 720910, 0, 262148, 720911, 0, 262154, 720912, 0, 262151, 720913, 0, 262151, 720914, 0, 262151, 720915, 0, 262151, 720916, 0, 262151, 720917, 0, 131080, 720918, 0, 262151, 720919, 0, 262148, 720920, 0, 262151, 720921, 0, 262151, 720922, 0, 262151, 720923, 0, 262151, 720924, 0, 262151, 720925, 0, 262151, 720926, 0, 131080, 720927, 0, 262152, 786435, 0, 262153, 786436, 0, 262151, 786437, 0, 262151, 786438, 0, 262151, 786439, 0, 262151, 786440, 0, 262151, 786441, 0, 262151, 786442, 0, 262151, 786443, 0, 262154, 786444, 0, 262151, 786445, 0, 262151, 786446, 0, 65543, 786447, 0, 262151, 786448, 0, 262151, 786449, 0, 65543, 786450, 0, 262151, 786451, 0, 262151, 786452, 0, 262151, 786453, 0, 262154, 786454, 0, 262154, 786455, 0, 262154, 786456, 0, 262151, 786457, 0, 262151, 786458, 0, 262151, 786459, 0, 262151, 786460, 0, 262148, 786461, 0, 131080, 786462, 0, 262151, 786463, 0, 262155, 851970, 0, 196614, 851971, 0, 131083, 851972, 0, 262145, 851973, 0, 262151, 851974, 0, 262154, 851975, 0, 262148, 851976, 0, 262151, 851977, 0, 65544, 851978, 0, 262151, 851979, 0, 262151, 851980, 0, 262151, 851981, 0, 65544, 851982, 0, 262151, 851983, 0, 262151, 851984, 0, 262151, 851985, 0, 262151, 851986, 0, 262151, 851987, 0, 262151, 851988, 0, 262151, 851989, 0, 262151, 851990, 0, 262151, 851991, 0, 262151, 851992, 0, 262151, 851993, 0, 262151, 851994, 0, 262151, 851995, 0, 65543, 851996, 0, 262151, 851997, 0, 262145, 851998, 0, 262151, 851999, 0, 131082, 852000, 0, 196616, 917505, 0, 196617, 917506, 0, 131083, 917507, 0, 262151, 917508, 0, 262151, 917509, 0, 262151, 917510, 0, 262151, 917511, 0, 262151, 917512, 0, 262151, 917513, 0, 262151, 917514, 0, 262145, 917515, 0, 262151, 917516, 0, 262151, 917517, 0, 262151, 917518, 0, 262151, 917519, 0, 262151, 917520, 0, 262151, 917521, 0, 262151, 917522, 0, 262151, 917523, 0, 262151, 917524, 0, 262151, 917525, 0, 262151, 917526, 0, 65543, 917527, 0, 262151, 917528, 0, 262151, 917529, 0, 262151, 917530, 0, 262151, 917531, 0, 262151, 917532, 0, 262151, 917533, 0, 262151, 917534, 0, 262148, 917535, 0, 262151, 917536, 0, 262155, 983041, 0, 262153, 983042, 0, 262151, 983043, 0, 131079, 983044, 0, 262151, 983045, 0, 262148, 983046, 0, 262151, 983047, 0, 262151, 983048, 0, 262151, 983049, 0, 262154, 983050, 0, 262151, 983051, 0, 262148, 983052, 0, 262151, 983053, 0, 262151, 983054, 0, 262151, 983055, 0, 262151, 983056, 0, 262148, 983057, 0, 262151, 983058, 0, 262151, 983059, 0, 262151, 983060, 0, 262151, 983061, 0, 262151, 983062, 0, 262151, 983063, 0, 262151, 983064, 0, 262151, 983065, 0, 262151, 983066, 0, 262151, 983067, 0, 262151, 983068, 0, 262148, 983069, 0, 262151, 983070, 0, 262151, 983071, 0, 262151, 983072, 0, 262149, 1048577, 0, 262150, 1048578, 0, 262151, 1048579, 0, 262151, 1048580, 0, 131080, 1048581, 0, 262148, 1048582, 0, 262151, 1048583, 0, 262151, 1048584, 0, 262151, 1048585, 0, 262151, 1048586, 0, 262151, 1048587, 0, 262151, 1048588, 0, 262151, 1048589, 0, 262151, 1048590, 0, 262151, 1048591, 0, 262151, 1048592, 0, 262151, 1048593, 0, 262151, 1048594, 0, 262151, 1048595, 0, 262151, 1048596, 0, 262151, 1048597, 0, 262151, 1048598, 0, 262151, 1048599, 0, 131079, 1048600, 0, 262151, 1048601, 0, 262151, 1048602, 0, 262151, 1048603, 0, 65544, 1048604, 0, 262151, 1048605, 0, 262151, 1048606, 0, 262151, 1048607, 0, 262151, 1048608, 0, 262155, 1114113, 0, 262153, 1114114, 0, 262148, 1114115, 0, 262151, 1114116, 0, 262151, 1114117, 0, 262151, 1114118, 0, 262151, 1114119, 0, 262151, 1114120, 0, 262151, 1114121, 0, 262151, 1114122, 0, 262151, 1114123, 0, 65546, 1114124, 0, 327690, 1114125, 0, 327687, 1114126, 0, 327687, 1114127, 0, 65547, 1114128, 0, 262151, 1114129, 0, 262151, 1114130, 0, 262151, 1114131, 0, 262151, 1114132, 0, 262151, 1114133, 0, 262151, 1114134, 0, 262145, 1114135, 0, 262151, 1114136, 0, 262151, 1114137, 0, 262151, 1114138, 0, 262151, 1114139, 0, 262151, 1114140, 0, 262151, 1114141, 0, 262151, 1114142, 0, 262151, 1114143, 0, 131080, 1114144, 0, 262146, 1179649, 0, 262144, 1179650, 0, 262151, 1179651, 0, 262151, 1179652, 0, 262151, 1179653, 0, 262151, 1179654, 0, 262151, 1179655, 0, 65544, 1179656, 0, 262145, 1179657, 0, 65546, 1179658, 0, 327684, 1179659, 0, 327691, 1179663, 0, 262150, 1179664, 0, 65546, 1179665, 0, 327690, 1179666, 0, 327687, 1179667, 0, 327687, 1179668, 0, 65547, 1179669, 0, 262145, 1179670, 0, 262151, 1179671, 0, 65546, 1179672, 0, 327687, 1179673, 0, 327687, 1179674, 0, 65547, 1179675, 0, 262151, 1179676, 0, 262151, 1179677, 0, 262151, 1179678, 0, 262151, 1179679, 0, 131080, 1179680, 0, 262152, 1245184, 0, 196614, 1245185, 0, 131083, 1245186, 0, 262151, 1245187, 0, 65543, 1245188, 0, 262151, 1245189, 0, 262154, 1245190, 0, 65546, 1245191, 0, 327687, 1245192, 0, 327681, 1245193, 0, 327688, 1245195, 0, 0, 1245199, 0, 327686, 1245200, 0, 327688, 1245204, 0, 262150, 1245205, 0, 262151, 1245206, 0, 262154, 1245207, 0, 262155, 1245210, 0, 327689, 1245211, 0, 65547, 1245212, 0, 262151, 1245213, 0, 262151, 1245214, 0, 262151, 1245215, 0, 262151, 1245216, 0, 262152, 1310720, 0, 327680, 1310721, 0, 327690, 1310722, 0, 65547, 1310723, 0, 262151, 1310724, 0, 65546, 1310725, 0, 327690, 1310726, 0, 327691, 1310728, 0, 0, 1310738, 0, 196611, 1310739, 0, 196618, 1310740, 0, 131083, 1310741, 0, 262151, 1310742, 0, 262151, 1310743, 0, 131082, 1310744, 0, 196616, 1310747, 0, 262153, 1310748, 0, 262151, 1310749, 0, 262148, 1310750, 0, 262151, 1310751, 0, 65546, 1310752, 0, 327691, 1310753, 0, 0, 1310754, 0, 0, 1376258, 0, 262153, 1376259, 0, 262151, 1376260, 0, 262155, 1376262, 0, 0, 1376266, 0, 0, 1376268, 0, 196614, 1376269, 0, 196616, 1376274, 0, 262150, 1376275, 0, 262151, 1376276, 0, 65546, 1376277, 0, 327681, 1376278, 0, 327684, 1376279, 0, 65547, 1376280, 0, 131082, 1376281, 0, 196618, 1376282, 0, 196615, 1376283, 0, 131083, 1376284, 0, 65546, 1376285, 0, 327690, 1376286, 0, 65547, 1376287, 0, 262155, 1441794, 0, 327689, 1441795, 0, 327684, 1441796, 0, 327691, 1441801, 0, 196617, 1441802, 0, 196618, 1441803, 0, 196618, 1441804, 0, 131083, 1441805, 0, 131082, 1441806, 0, 196613, 1441810, 0, 327689, 1441811, 0, 327681, 1441812, 0, 327691, 1441815, 0, 327689, 1441816, 0, 327681, 1441817, 0, 65547, 1441818, 0, 262151, 1441819, 0, 65543, 1441820, 0, 262152, 1441822, 0, 262150, 1441823, 0, 131082, 1441824, 0, 196619, 1507337, 0, 262153, 1507338, 0, 262151, 1507339, 0, 131079, 1507340, 0, 262151, 1507341, 0, 262151, 1507342, 0, 131082, 1507343, 0, 196616, 1507353, 0, 327686, 1507354, 0, 327681, 1507355, 0, 65547, 1507356, 0, 131082, 1507357, 0, 196615, 1507358, 0, 0, 1507359, 0, 327681, 1507360, 0, 327688, 1572871, 0, 196617, 1572872, 0, 196618, 1572873, 0, 131083, 1572874, 0, 65546, 1572875, 0, 327687, 1572876, 0, 327690, 1572877, 0, 65547, 1572878, 0, 65543, 1572879, 0, 131082, 1572880, 0, 196616, 1572891, 0, 327686, 1572892, 0, 327687, 1572893, 0, 327684, 1572894, 0, 327688, 1638406, 0, 0, 1638407, 0, 262144, 1638408, 0, 262151, 1638409, 0, 262151, 1638410, 0, 262152, 1638413, 0, 262150, 1638414, 0, 65544, 1638415, 0, 262151, 1638416, 0, 131082, 1638417, 0, 196615, 1638418, 0, 196618, 1638419, 0, 196616, 1638429, 0, 0, 1703943, 0, 327686, 1703944, 0, 65547, 1703945, 0, 262151, 1703946, 0, 262155, 1703949, 0, 262153, 1703950, 0, 262151, 1703951, 0, 262151, 1703952, 0, 65546, 1703953, 0, 327681, 1703954, 0, 65547, 1703955, 0, 131082, 1703956, 0, 196618, 1703957, 0, 196616, 1769476, 0, 196614, 1769477, 0, 196618, 1769478, 0, 196616, 1769480, 0, 262153, 1769481, 0, 131079, 1769482, 0, 131082, 1769483, 0, 196615, 1769484, 0, 196618, 1769485, 0, 131083, 1769486, 0, 262151, 1769487, 0, 65543, 1769488, 0, 262155, 1769490, 0, 327686, 1769491, 0, 327690, 1769492, 0, 327687, 1769493, 0, 327682, 1769498, 0, 0, 1835011, 0, 196617, 1835012, 0, 131083, 1835013, 0, 262151, 1835014, 0, 131082, 1835015, 0, 196618, 1835016, 0, 131083, 1835017, 0, 65544, 1835018, 0, 262151, 1835019, 0, 262151, 1835020, 0, 262154, 1835021, 0, 262145, 1835022, 0, 262151, 1835023, 0, 262151, 1835024, 0, 131082, 1835025, 0, 196616, 1835034, 0, 0, 1835036, 0, 196614, 1835037, 0, 196618, 1835038, 0, 196616, 1900546, 0, 0, 1900547, 0, 262153, 1900548, 0, 262151, 1900549, 0, 65546, 1900550, 0, 327687, 1900551, 0, 65547, 1900552, 0, 262148, 1900553, 0, 262148, 1900554, 0, 262151, 1900555, 0, 262151, 1900556, 0, 262151, 1900557, 0, 262151, 1900558, 0, 262151, 1900559, 0, 262151, 1900560, 0, 262151, 1900561, 0, 131082, 1900562, 0, 196619, 1900568, 0, 196614, 1900569, 0, 196615, 1900570, 0, 196618, 1900571, 0, 196618, 1900572, 0, 131083, 1900573, 0, 65546, 1900574, 0, 327691, 1966083, 0, 262150, 1966084, 0, 262151, 1966085, 0, 262152, 1966087, 0, 327686, 1966088, 0, 327690, 1966089, 0, 327687, 1966090, 0, 327684, 1966091, 0, 327687, 1966092, 0, 65547, 1966093, 0, 262151, 1966094, 0, 131080, 1966095, 0, 65543, 1966096, 0, 262151, 1966097, 0, 65546, 1966098, 0, 327688, 1966103, 0, 196617, 1966104, 0, 131083, 1966105, 0, 262151, 1966106, 0, 262148, 1966107, 0, 262148, 1966108, 0, 262151, 1966109, 0, 262152, 1966111, 0, 0, 2031618, 0, 196614, 2031619, 0, 131083, 2031620, 0, 262154, 2031621, 0, 262155, 2031628, 0, 327686, 2031629, 0, 327687, 2031630, 0, 65547, 2031631, 0, 262151, 2031632, 0, 262151, 2031633, 0, 262155, 2031639, 0, 327686, 2031640, 0, 65547, 2031641, 0, 65543, 2031642, 0, 262151, 2031643, 0, 262151, 2031644, 0, 65543, 2031645, 0, 131082, 2031646, 0, 196616, 2097152, 0, 0, 2097153, 0, 196614, 2097154, 0, 131083, 2097155, 0, 262151, 2097156, 0, 262148, 2097157, 0, 262152, 2097166, 0, 327686, 2097167, 0, 327687, 2097168, 0, 327690, 2097169, 0, 327691, 2097176, 0, 262150, 2097177, 0, 131080, 2097178, 0, 262151, 2097179, 0, 262151, 2097180, 0, 262151, 2097181, 0, 262151, 2097182, 0, 131082, 2097183, 0, 196619, 2162689, 0, 327689, 2162690, 0, 65547, 2162691, 0, 262148, 2162692, 0, 131080, 2162693, 0, 131082, 2162694, 0, 196612, 2162695, 0, 196609, 2162696, 0, 196619, 2162697, 0, 0, 2162712, 0, 327686, 2162713, 0, 327690, 2162714, 0, 65547, 2162715, 0, 262151, 2162716, 0, 262151, 2162717, 0, 65544, 2162718, 0, 262145, 2162719, 0, 262155, 2228226, 0, 327689, 2228227, 0, 65547, 2228228, 0, 262151, 2228229, 0, 262151, 2228230, 0, 262151, 2228231, 0, 262151, 2228232, 0, 262146, 2228234, 0, 0, 2228250, 0, 327689, 2228251, 0, 327687, 2228252, 0, 327687, 2228253, 0, 327681, 2228254, 0, 327687, 2228255, 0, 327688, 2293763, 0, 327686, 2293764, 0, 327690, 2293765, 0, 327690, 2293766, 0, 65547, 2293767, 0, 262151, 2293768, 0, 131082, 2293769, 0, 196615, 2293770, 0, 196618, 2293771, 0, 196618, 2293772, 0, 196615, 2293773, 0, 196619, 2293790, 0, 0, 2359302, 0, 327686, 2359303, 0, 327687, 2359304, 0, 327690, 2359305, 0, 327690, 2359306, 0, 327690, 2359307, 0, 327687, 2359308, 0, 327687, 2359309, 0, 327688 )

[node name="All" type="YSort" parent="."]

[node name="Obstacles" type="YSort" parent="All"]

[node name="PushableObstacle" parent="All/Obstacles" instance=ExtResource( 6 )]
position = Vector2( 894.545, 831.548 )

[node name="PushableObstacle2" parent="All/Obstacles" instance=ExtResource( 6 )]
position = Vector2( 1108.73, 831.548 )

[node name="StaticTestObstacle" parent="All/Obstacles" instance=ExtResource( 8 )]

[node name="CreatureGeneratorManager" type="YSort" parent="All"]
script = ExtResource( 5 )

[node name="CreatureGenerator" parent="All/CreatureGeneratorManager" instance=ExtResource( 9 )]
position = Vector2( 1754.34, 221.148 )

[node name="CreatureGenerator2" parent="All/CreatureGeneratorManager" instance=ExtResource( 9 )]
position = Vector2( 874.132, 235.402 )
_startingDir = Vector2( 1, 0 )

[node name="CreatureGenerator3" parent="All/CreatureGeneratorManager" instance=ExtResource( 9 )]
position = Vector2( 1757.9, 812.704 )
_startingDir = Vector2( -1, 0 )

[node name="CreatureGenerator4" parent="All/CreatureGeneratorManager" instance=ExtResource( 9 )]
position = Vector2( 1187.73, 930.303 )
_startingDir = Vector2( -1, 0 )

[node name="CreatureGenerator5" parent="All/CreatureGeneratorManager" instance=ExtResource( 9 )]
position = Vector2( 460.755, 641.652 )
_startingDir = Vector2( 1, 0 )

[node name="CreatureGenerator6" parent="All/CreatureGeneratorManager" instance=ExtResource( 9 )]
position = Vector2( 745.843, 452.781 )
_startingDir = Vector2( 1, 0 )

[node name="PortalGen" type="YSort" parent="All"]
script = ExtResource( 10 )

[node name="Position2D" type="Position2D" parent="All/PortalGen"]
position = Vector2( 814.907, 610.619 )

[node name="Position2D2" type="Position2D" parent="All/PortalGen"]
position = Vector2( 1095.52, 686.947 )

[node name="Position2D3" type="Position2D" parent="All/PortalGen"]
position = Vector2( 1311.04, 282.86 )

[node name="Position2D4" type="Position2D" parent="All/PortalGen"]
position = Vector2( 1533.28, 583.68 )

[node name="Position2D5" type="Position2D" parent="All/PortalGen"]
position = Vector2( 1436.75, 841.846 )

[node name="Position2D6" type="Position2D" parent="All/PortalGen"]
position = Vector2( 516.333, 895.725 )

[node name="Position2D7" type="Position2D" parent="All/PortalGen"]
position = Vector2( 1715.12, 374.902 )

[node name="Position2D8" type="Position2D" parent="All/PortalGen"]
position = Vector2( 1048.38, 289.595 )

[node name="GenTimer" type="Timer" parent="All/PortalGen"]
one_shot = true

[node name="Cauldron" parent="All" instance=ExtResource( 7 )]
position = Vector2( 1761.38, 592.952 )

[node name="Player" parent="All" instance=ExtResource( 1 )]
position = Vector2( 637.559, 848.582 )

[node name="Camera2D" type="Camera2D" parent="All/Player"]
current = true

[node name="PortalManager1" parent="All" instance=ExtResource( 3 )]

[node name="Portal" parent="All/PortalManager1" instance=ExtResource( 11 )]

[node name="Portal2" parent="All/PortalManager1" instance=ExtResource( 11 )]

[node name="PortalManager2" parent="All" instance=ExtResource( 3 )]
PortalPairID0 = 1
PortalPairID1 = 1

[node name="Portal" parent="All/PortalManager2" instance=ExtResource( 11 )]
PortalPairID = 1

[node name="Portal2" parent="All/PortalManager2" instance=ExtResource( 11 )]
PortalPairID = 1

[node name="LevelTimer" type="Timer" parent="."]
wait_time = 20.0
one_shot = true

[connection signal="timeout" from="All/PortalGen/GenTimer" to="All/PortalGen" method="OnGenTimerTimeout"]
[connection signal="OnPortalGunOneActivated" from="All/Player" to="All/PortalManager1" method="OnPortalGunOneActivated"]
[connection signal="OnPortalGunTwoActivated" from="All/Player" to="All/PortalManager2" method="OnPortalGunTwoActivated"]
[connection signal="OnPortalActivated" from="All/PortalManager1/Portal" to="All/PortalManager1" method="OnPortalActivated"]
[connection signal="OnPortalActivated" from="All/PortalManager1/Portal2" to="All/PortalManager1" method="OnPortalActivated"]
[connection signal="OnPortalActivated" from="All/PortalManager2/Portal" to="All/PortalManager2" method="OnPortalActivated"]
[connection signal="OnPortalActivated" from="All/PortalManager2/Portal2" to="All/PortalManager2" method="OnPortalActivated"]
