[gd_scene load_steps=3 format=2]

[ext_resource path="res://Doodads/StaticObstacles/Art/round lolly v0.1.png" type="Texture" id=1]

[sub_resource type="CapsuleShape2D" id=1]
radius = 3.93219
height = 10.264

[node name="RoundLollyObstacle" type="StaticBody2D"]
position = Vector2( 1030.43, 157.838 )

[node name="Sprite" type="Sprite" parent="."]
scale = Vector2( 0.5, 0.5 )
texture = ExtResource( 1 )

[node name="Shape" type="CollisionShape2D" parent="."]
position = Vector2( -28.2487, 50.1933 )
rotation = 0.383972
shape = SubResource( 1 )
